<?xml version="1.0"?>
<gpx version="1.1" creator="Xcode"> 
    <wpt lat="-34.96873093031965" lon="-54.95133340358734">
        <name>Faro e Iglesia</name>
        <time>2014-09-24T14:55:37Z</time>
    </wpt>
    <wpt lat="-34.96888918445881" lon="-54.94665563106537">
        <name>Playa de los ingleses</name>
        <time>2014-09-24T14:56:00Z</time>
    </wpt>
    <wpt lat="-34.96873093031965" lon="-54.95133340358734">
        <name>Faro e Iglesia</name>
        <time>2014-09-24T14:56:30Z</time>
    </wpt>
</gpx>
